#div1 {
height: 150px;
width: 400px;
margin: 20px;
border: 1px solid red;
padding: 10px;
}
For this object, calculate:

Total height = 212     (20+1+10+150+1+10+20)                             (margin-top=20px)+(border-top=1px) + (padding-top=10px) + (height=150px) + (padding-bottom=10px) + (border-bottom=1px) + (margin-bottom=20px)
Total width=462       (20+1+10+400+1+10+20)                             (margin-left=20px)+(border-left=1px) + (padding-left=10px) + (width=400px) + (padding-right=10px) + (border-right=1px) + (margin-right=20px)
Browser calculated height=172   (1+10+150+10+1)                                                     (border-top=1px)+(padding-top=10px)+(height=150px)+(padding-bottom=10px)+(border-bottom=1px)
Browser calculated width=422    (1+10+400+10+1)                                                     (border-left=1px)+(padding-left=10px)+(width=400px)+(padding-right=10px)+(border-right=1px)





